-- Soal 1 Membuat Database-- 
CREATE DATABASE myshop;
-- ========================================================
-- 

-- USE myshop;

-- Soal 2 Membuat Table di Dalam Database--

 CREATE TABLE users (
  	Id_users INT AUTO_INCREMENT PRIMARY KEY ,
  	Nama VARCHAR(255),
  	Email VARCHAR(255),
  	Pasword VARCHAR(255)
  )
  
 CREATE TABLE categories (
 	Id_categories int AUTO_INCREMENT PRIMARY KEY,
 	Nama VARCHAR(255)
 )
 
 CREATE TABLE items (
     	Id_Categories INT PRIMARY KEY AUTO_INCREMENT,
     	Nama VARCHAR(255),
   	Description VARCHAR(255),
   	Price INT,
   	Stock INT,
      	Category_id INT,
   	FOREIGN KEY (Category_id) REFERENCES  categories (Id_categories)
 )

-- =========================================================
-- Soal 3 Memasukkan Data pada Tabel --

INSERT INTO users (Nama,email,Pasword) VALUES ("John Doe","john@doe.com","john123")
INSERT INTO users (Nama,email,Pasword) VALUES ("Jane Doe","jane@doe.com","jenita123")

INSERT INTO categories (Nama) VALUES ("gadget"),("men"),("cloth"),("women"),("branded")
 
INSERT INTO items (Nama,Description,Price,Stock,Category_id) VALUES ("SAmsung b50","hape keren dari merek sumsang",4000000,100,1)



-- =========================================================

-- Soal 4 Mengambil Data dari Database

    SELECT DISTINCT nama,email FROM users

--Soal Nomer 4B--
 1) SELECT *FROM items WHERE Price>1000000
 2) SELECT * FROM items WHERE Nama LIKE '%nik%'
    SELECT * FROM items WHERE Nama LIKE 'uniklo%'
 
 
 --Soal Nomer 4C--
   SELECT items.Id_Categories,     
   items.Nama,items.Description,items.Price,items.Stock,items.Category_id,categories.Nama
   FROM items INNER JOIN  categories ON items.Category_id =categories.Id_categories
-- ==========================================================
--Soal No 5--

UPDATE items SET Price =2500000 WHERE Id_Categories =1


